{
  "base_url": "/user/simonbayle-mt15-2021-tp4-acm-46m4znrj/",
  "hostname": "0.0.0.0",
  "notebook_dir": "/home/jovyan",
  "password": false,
  "pid": 18,
  "port": 8888,
  "secure": false,
  "sock": "",
  "token": "fjqZkHu3S6WyL9XOvc0NQQ",
  "url": "http://0.0.0.0:8888/user/simonbayle-mt15-2021-tp4-acm-46m4znrj/"
}